ISSS608-VAA - Take-home_Ex02
…
Check number of shipments and fishing weights in 2032 by hscode.

Show the code

hscode_count <-  mc2_edges %>%
  filter(year==2032) %>%
  select(hscode,weightkg) %>%
  group_by(hscode) %>%
  summarise(weightkg = sum(weightkg), count=n(), kg_per_ship=weightkg/count) %>%
  distinct() %>%
  arrange(desc(count))
hscode_count

# A tibble: 3,864 × 4
   hscode   weightkg count kg_per_ship
   <chr>       <dbl> <int>       <dbl>
 1 306170  477204630 24772      19264.
 2 940360  181475405 14794      12267.
 3 870899  479390615 14255      33630.
 4 611020   75241440 13321       5648.
 5 950300  105203525 12274       8571.
 6 304620  216078950  9958      21699.
 7 870323 2578623605  9313     276884.
 8 640299   86822135  8815       9849.
 9 160414  477284410  8762      54472.
10 940161   92760155  8528      10877.
# ℹ 3,854 more rows
…
Check nodes with out-degree >= 20, those fisher transit products to many different nodes, they may conduct unreported fishing and try to hide it in splitted transactions.

Show the code

mc2_graph_topcount %>%
    mutate(centrality_bet = centrality_degree(mode = "out")) %>%
    filter(centrality_bet>=20) %>%
    select(id,group) 

# A tbl_graph: 10 nodes and 0 edges
#
# A rooted forest with 10 trees
#
# A tibble: 10 × 2
  id                                     group 
  <chr>                                  <chr> 
1 Balkan Cat ОАО Transport               fisher
2 Blue Horizon Family &                  fisher
3 CoralCove Foods AG Marine conservation fisher
4 Daniel Ferry N.V. Transit              fisher
5 Italian Sardines Ltd. Liability Co     fisher
6 Lake Tana  & Son's                     fisher
# ℹ 4 more rows
…
