ISSS608-VAA - Take-home_Ex03
…
Show the code

mc3_nodes %>%
  select(product_services) %>%
  group_by(product_services) %>%
  summarise(count = n())

# A tibble: 3,244 × 2
   product_services                                                        count
   <chr>                                                                   <int>
 1 (Italian) peeled tomatoes, legumes, vegetables, fruits and canned mush…     1
 2 100 percent Spanish olives; peppers, green, black, and manzanilla stuf…     1
 3 2 or 3-piece containers, twist off caps, easy opening and traditional …     1
 4 8 Cement Mixer Units, Ocean Freight, Air Freight, Project Logistics, C…     1
 5 A chemical science firm with a focus on the development of high purity…     1
 6 A complete range of fully-vertical, Schiffli embroidery manufacturing …     1
 7 A complete range of transportation and logistics services                   1
 8 A customs broker and freight forwarder                                      1
 9 A distributor, importer and exporter of food products to the food reta…     1
10 A freight broker                                                            1
# ℹ 3,234 more rows

Note:

Here before we do text analysis on product services, some stopwords like “character(0)” need to be treated.

3.2 Wrangling attributes:

Find hscode with most edges and hscode with most weightkg of fishing:

Show the code

mc3_nodes %>%
  mutate(n_fish = str_count(product_services), "fish")

# A tibble: 27,622 × 7
   id                 country type  revenue_omu product_services n_fish `"fish"`
   <chr>              <chr>   <chr>       <dbl> <chr>             <int> <chr>   
 1 Jones LLC          ZH      Comp…  310612303. Automobiles          11 fish    
 2 Coleman, Hall and… ZH      Comp…  162734684. Passenger cars,…     39 fish    
 3 Aqua Advancements… Oceanus Comp…  115004667. Holding firm wh…    248 fish    
 4 Makumba Ltd. Liab… Utopor… Comp…   90986413. Car service, ca…    428 fish    
 5 Taylor, Taylor an… ZH      Comp…   81466667. Fully electric …     72 fish    
 6 Harmon, Edwards a… ZH      Comp…   75070435. Discount superm…     59 fish    
 7 Punjab s Marine c… Riodel… Comp…   72167572. Beef, pork, chi…    652 fish    
 8 Assam   Limited L… Utopor… Comp…   72162317. Power and Gas s…   1737 fish    
 9 Ianira Starfish S… Rio Is… Comp…   68832979. Light commercia…     94 fish    
10 Moran, Lewis and … ZH      Comp…   65592906. Automobiles, tr…     88 fish    
# ℹ 27,612 more rows
…
